[
  {
    "name": "Toulouse",
    "longitude": "43.6043",
    "latitude": "1.4437",
    "formation":" Hackeuses - Edition spéciale IA,Apple Foundation Program",
    "adresse":" Toulouse, 31000 Occitanie, France"
  },
  {
    "name": "Alès",
    "longitude": "44.1333",
    "latitude": "4.0833",
    "formation":" Pas de session prevue",
    "adresse":" Alès, 30100 Occitanie, France"
  },
  {
    "name": " Auch",
    "longitude": "43.65",
    "latitude": "0.5833",
    "formation":" Pas de session prevue",
    "adresse":" Auch, 32000 Occitanie, France"
  },
  {
    "name": "Bagnols-sur-Cèze",
    "longitude": "44.1599",
    "latitude": "4.6178",
    "formation":" Pas de session prevue",
    "adresse":" 188 Avenue du Commando Vigan Braquet, 30200 Bagnols-sur-Cèze, Occitanie, France"
  },
  {
    "name": "Cahors",
    "longitude": "44.4491",
    "latitude": "1.4366",
    "formation":" Pas de session prevue",
    "adresse":" Cahors, 46000 Occitanie, France"
  },
  {
    "name": "Carbonne",
    "longitude": "43.3",
    "latitude": "1.2333",
    "formation":" Pas de session prevue",
    "adresse":" Carbonne, 31390 Occitanie, France"
  },
  {
    "name": "Carcassonne",
    "longitude": "43.25",
    "latitude": "2.1667",
    "formation":" Pas de session prevue",
    "adresse":" Carcassonne, 11000 Occitanie, France"
  },
  {
    "name": "Castelnau-le-Lez - Microsoft",
    "longitude": "43.6333",
    "latitude": "3.9",
    "formation":" Pas de session prevue",
    "adresse":" Castelnau-le-Lez, 34170 Occitanie, France"
  },
  {
    "name": "Labège",
    "longitude": "43.5304",
    "latitude": "1.536",
    "formation":" Pas de session prevue",
    "adresse":" Labège, 31670 Occitanie, France"
  },
  {
    "name": "Narbonne",
    "longitude": "43.0833",
    "latitude": "2.8333",
    "formation":" Pas de session prevue",
    "adresse":" 30 Avenue Docteur Paul Pompidor, 11100 Narbonne, Occitanie, France"
  },

  {
    "name": "Saint-Gaudens",
    "longitude": "43.0833",
    "latitude": "0.6667",
    "formation":" Pas de session prevue",
    "adresse":" Auch, 32000 Occitanie, France"
  }
]
